<svg xmlns="http://www.w3.org/2000/svg" width="424" height="44" viewBox="0 0 423.8 44.2"><style type="text/css">.st0{fill:#FFFFFF;}</style>
	<rect x="239.9" y="-0.1" class="st0" width="70.7" height="44.3"/>
	<path class="st0" d="M57.2 22.6h-7V0.1H0v26.5c0 9.6 8 17.6 17.6 17.6h72.1c9.6 0 17.6-8 17.6-17.6V0.1H57.2V22.6z"/>
	<polygon class="st0" points="316 14.6 334.5 14.6 334.5 44.3 405.1 44.3 405.1 14.6 423.8 14.6 423.8 0 316 0 "/>
	<polygon class="st0" points="183.1 11 167.3 0 113.1 0 113.1 44.2 163.9 44.2 163.9 33.6 179.1 44.2 234.2 44.2 234.2 0 183.1 0 "/>
</svg>