<?xml version="1.0" encoding="utf-8"?>
<!-- Generator: Adobe Illustrator 21.1.0, SVG Export Plug-In . SVG Version: 6.00 Build 0)  -->
<svg version="1.1" id="Layer_1" xmlns:ev="http://www.w3.org/2001/xml-events"
	 xmlns="http://www.w3.org/2000/svg" xmlns:xlink="http://www.w3.org/1999/xlink" x="0px" y="0px" width="200.3px" height="200.3px"
	 viewBox="0 0 200.3 200.3" style="enable-background:new 0 0 200.3 200.3;" xml:space="preserve">
<desc></desc>
<g>
	<g>
		<rect id="p" x="0.3" y="0.3" width="8" height="8"/>
	</g>
	<g>
		<rect id="p_1_" x="0.3" y="8.3" width="8" height="8"/>
	</g>
	<g>
		<rect id="p_2_" x="0.3" y="16.3" width="8" height="8"/>
	</g>
	<g>
		<rect id="p_3_" x="0.3" y="24.3" width="8" height="8"/>
	</g>
	<g>
		<rect id="p_4_" x="0.3" y="32.3" width="8" height="8"/>
	</g>
	<g>
		<rect id="p_5_" x="0.3" y="40.3" width="8" height="8"/>
	</g>
	<g>
		<rect id="p_6_" x="0.3" y="48.3" width="8" height="8"/>
	</g>
	<g>
		<rect id="p_7_" x="0.3" y="64.3" width="8" height="8"/>
	</g>
	<g>
		<rect id="p_8_" x="0.3" y="104.3" width="8" height="8"/>
	</g>
	<g>
		<rect id="p_9_" x="0.3" y="112.3" width="8" height="8"/>
	</g>
	<g>
		<rect id="p_10_" x="0.3" y="128.3" width="8" height="8"/>
	</g>
	<g>
		<rect id="p_11_" x="0.3" y="144.3" width="8" height="8"/>
	</g>
	<g>
		<rect id="p_12_" x="0.3" y="152.3" width="8" height="8"/>
	</g>
	<g>
		<rect id="p_13_" x="0.3" y="160.3" width="8" height="8"/>
	</g>
	<g>
		<rect id="p_14_" x="0.3" y="168.3" width="8" height="8"/>
	</g>
	<g>
		<rect id="p_15_" x="0.3" y="176.3" width="8" height="8"/>
	</g>
	<g>
		<rect id="p_16_" x="0.3" y="184.3" width="8" height="8"/>
	</g>
	<g>
		<rect id="p_17_" x="0.3" y="192.3" width="8" height="8"/>
	</g>
	<g>
		<rect id="p_18_" x="8.3" y="0.3" width="8" height="8"/>
	</g>
	<g>
		<rect id="p_19_" x="8.3" y="48.3" width="8" height="8"/>
	</g>
	<g>
		<rect id="p_20_" x="8.3" y="64.3" width="8" height="8"/>
	</g>
	<g>
		<rect id="p_21_" x="8.3" y="72.3" width="8" height="8"/>
	</g>
	<g>
		<rect id="p_22_" x="8.3" y="80.3" width="8" height="8"/>
	</g>
	<g>
		<rect id="p_23_" x="8.3" y="88.3" width="8" height="8"/>
	</g>
	<g>
		<rect id="p_24_" x="8.3" y="96.3" width="8" height="8"/>
	</g>
	<g>
		<rect id="p_25_" x="8.3" y="120.3" width="8" height="8"/>
	</g>
	<g>
		<rect id="p_26_" x="8.3" y="128.3" width="8" height="8"/>
	</g>
	<g>
		<rect id="p_27_" x="8.3" y="144.3" width="8" height="8"/>
	</g>
	<g>
		<rect id="p_28_" x="8.3" y="192.3" width="8" height="8"/>
	</g>
	<g>
		<rect id="p_29_" x="16.3" y="0.3" width="8" height="8"/>
	</g>
	<g>
		<rect id="p_30_" x="16.3" y="16.3" width="8" height="8"/>
	</g>
	<g>
		<rect id="p_31_" x="16.3" y="24.3" width="8" height="8"/>
	</g>
	<g>
		<rect id="p_32_" x="16.3" y="32.3" width="8" height="8"/>
	</g>
	<g>
		<rect id="p_33_" x="16.3" y="48.3" width="8" height="8"/>
	</g>
	<g>
		<rect id="p_34_" x="16.3" y="64.3" width="8" height="8"/>
	</g>
	<g>
		<rect id="p_35_" x="16.3" y="72.3" width="8" height="8"/>
	</g>
	<g>
		<rect id="p_36_" x="16.3" y="80.3" width="8" height="8"/>
	</g>
	<g>
		<rect id="p_37_" x="16.3" y="88.3" width="8" height="8"/>
	</g>
	<g>
		<rect id="p_38_" x="16.3" y="104.3" width="8" height="8"/>
	</g>
	<g>
		<rect id="p_39_" x="16.3" y="112.3" width="8" height="8"/>
	</g>
	<g>
		<rect id="p_40_" x="16.3" y="120.3" width="8" height="8"/>
	</g>
	<g>
		<rect id="p_41_" x="16.3" y="128.3" width="8" height="8"/>
	</g>
	<g>
		<rect id="p_42_" x="16.3" y="144.3" width="8" height="8"/>
	</g>
	<g>
		<rect id="p_43_" x="16.3" y="160.3" width="8" height="8"/>
	</g>
	<g>
		<rect id="p_44_" x="16.3" y="168.3" width="8" height="8"/>
	</g>
	<g>
		<rect id="p_45_" x="16.3" y="176.3" width="8" height="8"/>
	</g>
	<g>
		<rect id="p_46_" x="16.3" y="192.3" width="8" height="8"/>
	</g>
	<g>
		<rect id="p_47_" x="24.3" y="0.3" width="8" height="8"/>
	</g>
	<g>
		<rect id="p_48_" x="24.3" y="16.3" width="8" height="8"/>
	</g>
	<g>
		<rect id="p_49_" x="24.3" y="24.3" width="8" height="8"/>
	</g>
	<g>
		<rect id="p_50_" x="24.3" y="32.3" width="8" height="8"/>
	</g>
	<g>
		<rect id="p_51_" x="24.3" y="48.3" width="8" height="8"/>
	</g>
	<g>
		<rect id="p_52_" x="24.3" y="64.3" width="8" height="8"/>
	</g>
	<g>
		<rect id="p_53_" x="24.3" y="72.3" width="8" height="8"/>
	</g>
	<g>
		<rect id="p_54_" x="24.3" y="80.3" width="8" height="8"/>
	</g>
	<g>
		<rect id="p_55_" x="24.3" y="96.3" width="8" height="8"/>
	</g>
	<g>
		<rect id="p_56_" x="24.3" y="104.3" width="8" height="8"/>
	</g>
	<g>
		<rect id="p_57_" x="24.3" y="120.3" width="8" height="8"/>
	</g>
	<g>
		<rect id="p_58_" x="24.3" y="144.3" width="8" height="8"/>
	</g>
	<g>
		<rect id="p_59_" x="24.3" y="160.3" width="8" height="8"/>
	</g>
	<g>
		<rect id="p_60_" x="24.3" y="168.3" width="8" height="8"/>
	</g>
	<g>
		<rect id="p_61_" x="24.3" y="176.3" width="8" height="8"/>
	</g>
	<g>
		<rect id="p_62_" x="24.3" y="192.3" width="8" height="8"/>
	</g>
	<g>
		<rect id="p_63_" x="32.3" y="0.3" width="8" height="8"/>
	</g>
	<g>
		<rect id="p_64_" x="32.3" y="16.3" width="8" height="8"/>
	</g>
	<g>
		<rect id="p_65_" x="32.3" y="24.3" width="8" height="8"/>
	</g>
	<g>
		<rect id="p_66_" x="32.3" y="32.3" width="8" height="8"/>
	</g>
	<g>
		<rect id="p_67_" x="32.3" y="48.3" width="8" height="8"/>
	</g>
	<g>
		<rect id="p_68_" x="32.3" y="72.3" width="8" height="8"/>
	</g>
	<g>
		<rect id="p_69_" x="32.3" y="80.3" width="8" height="8"/>
	</g>
	<g>
		<rect id="p_70_" x="32.3" y="88.3" width="8" height="8"/>
	</g>
	<g>
		<rect id="p_71_" x="32.3" y="104.3" width="8" height="8"/>
	</g>
	<g>
		<rect id="p_72_" x="32.3" y="112.3" width="8" height="8"/>
	</g>
	<g>
		<rect id="p_73_" x="32.3" y="120.3" width="8" height="8"/>
	</g>
	<g>
		<rect id="p_74_" x="32.3" y="128.3" width="8" height="8"/>
	</g>
	<g>
		<rect id="p_75_" x="32.3" y="144.3" width="8" height="8"/>
	</g>
	<g>
		<rect id="p_76_" x="32.3" y="160.3" width="8" height="8"/>
	</g>
	<g>
		<rect id="p_77_" x="32.3" y="168.3" width="8" height="8"/>
	</g>
	<g>
		<rect id="p_78_" x="32.3" y="176.3" width="8" height="8"/>
	</g>
	<g>
		<rect id="p_79_" x="32.3" y="192.3" width="8" height="8"/>
	</g>
	<g>
		<rect id="p_80_" x="40.3" y="0.3" width="8" height="8"/>
	</g>
	<g>
		<rect id="p_81_" x="40.3" y="48.3" width="8" height="8"/>
	</g>
	<g>
		<rect id="p_82_" x="40.3" y="72.3" width="8" height="8"/>
	</g>
	<g>
		<rect id="p_83_" x="40.3" y="80.3" width="8" height="8"/>
	</g>
	<g>
		<rect id="p_84_" x="40.3" y="96.3" width="8" height="8"/>
	</g>
	<g>
		<rect id="p_85_" x="40.3" y="112.3" width="8" height="8"/>
	</g>
	<g>
		<rect id="p_86_" x="40.3" y="120.3" width="8" height="8"/>
	</g>
	<g>
		<rect id="p_87_" x="40.3" y="128.3" width="8" height="8"/>
	</g>
	<g>
		<rect id="p_88_" x="40.3" y="144.3" width="8" height="8"/>
	</g>
	<g>
		<rect id="p_89_" x="40.3" y="192.3" width="8" height="8"/>
	</g>
	<g>
		<rect id="p_90_" x="48.3" y="0.3" width="8" height="8"/>
	</g>
	<g>
		<rect id="p_91_" x="48.3" y="8.3" width="8" height="8"/>
	</g>
	<g>
		<rect id="p_92_" x="48.3" y="16.3" width="8" height="8"/>
	</g>
	<g>
		<rect id="p_93_" x="48.3" y="24.3" width="8" height="8"/>
	</g>
	<g>
		<rect id="p_94_" x="48.3" y="32.3" width="8" height="8"/>
	</g>
	<g>
		<rect id="p_95_" x="48.3" y="40.3" width="8" height="8"/>
	</g>
	<g>
		<rect id="p_96_" x="48.3" y="48.3" width="8" height="8"/>
	</g>
	<g>
		<rect id="p_97_" x="48.3" y="64.3" width="8" height="8"/>
	</g>
	<g>
		<rect id="p_98_" x="48.3" y="80.3" width="8" height="8"/>
	</g>
	<g>
		<rect id="p_99_" x="48.3" y="96.3" width="8" height="8"/>
	</g>
	<g>
		<rect id="p_100_" x="48.3" y="112.3" width="8" height="8"/>
	</g>
	<g>
		<rect id="p_101_" x="48.3" y="128.3" width="8" height="8"/>
	</g>
	<g>
		<rect id="p_102_" x="48.3" y="144.3" width="8" height="8"/>
	</g>
	<g>
		<rect id="p_103_" x="48.3" y="152.3" width="8" height="8"/>
	</g>
	<g>
		<rect id="p_104_" x="48.3" y="160.3" width="8" height="8"/>
	</g>
	<g>
		<rect id="p_105_" x="48.3" y="168.3" width="8" height="8"/>
	</g>
	<g>
		<rect id="p_106_" x="48.3" y="176.3" width="8" height="8"/>
	</g>
	<g>
		<rect id="p_107_" x="48.3" y="184.3" width="8" height="8"/>
	</g>
	<g>
		<rect id="p_108_" x="48.3" y="192.3" width="8" height="8"/>
	</g>
	<g>
		<rect id="p_109_" x="56.3" y="72.3" width="8" height="8"/>
	</g>
	<g>
		<rect id="p_110_" x="56.3" y="112.3" width="8" height="8"/>
	</g>
	<g>
		<rect id="p_111_" x="56.3" y="128.3" width="8" height="8"/>
	</g>
	<g>
		<rect id="p_112_" x="64.3" y="0.3" width="8" height="8"/>
	</g>
	<g>
		<rect id="p_113_" x="64.3" y="16.3" width="8" height="8"/>
	</g>
	<g>
		<rect id="p_114_" x="64.3" y="24.3" width="8" height="8"/>
	</g>
	<g>
		<rect id="p_115_" x="64.3" y="32.3" width="8" height="8"/>
	</g>
	<g>
		<rect id="p_116_" x="64.3" y="48.3" width="8" height="8"/>
	</g>
	<g>
		<rect id="p_117_" x="64.3" y="64.3" width="8" height="8"/>
	</g>
	<g>
		<rect id="p_118_" x="64.3" y="80.3" width="8" height="8"/>
	</g>
	<g>
		<rect id="p_119_" x="64.3" y="88.3" width="8" height="8"/>
	</g>
	<g>
		<rect id="p_120_" x="64.3" y="96.3" width="8" height="8"/>
	</g>
	<g>
		<rect id="p_121_" x="64.3" y="104.3" width="8" height="8"/>
	</g>
	<g>
		<rect id="p_122_" x="64.3" y="112.3" width="8" height="8"/>
	</g>
	<g>
		<rect id="p_123_" x="64.3" y="128.3" width="8" height="8"/>
	</g>
	<g>
		<rect id="p_124_" x="64.3" y="136.3" width="8" height="8"/>
	</g>
	<g>
		<rect id="p_125_" x="64.3" y="168.3" width="8" height="8"/>
	</g>
	<g>
		<rect id="p_126_" x="64.3" y="176.3" width="8" height="8"/>
	</g>
	<g>
		<rect id="p_127_" x="64.3" y="184.3" width="8" height="8"/>
	</g>
	<g>
		<rect id="p_128_" x="64.3" y="192.3" width="8" height="8"/>
	</g>
	<g>
		<rect id="p_129_" x="72.3" y="0.3" width="8" height="8"/>
	</g>
	<g>
		<rect id="p_130_" x="72.3" y="24.3" width="8" height="8"/>
	</g>
	<g>
		<rect id="p_131_" x="72.3" y="32.3" width="8" height="8"/>
	</g>
	<g>
		<rect id="p_132_" x="72.3" y="40.3" width="8" height="8"/>
	</g>
	<g>
		<rect id="p_133_" x="72.3" y="56.3" width="8" height="8"/>
	</g>
	<g>
		<rect id="p_134_" x="72.3" y="72.3" width="8" height="8"/>
	</g>
	<g>
		<rect id="p_135_" x="72.3" y="96.3" width="8" height="8"/>
	</g>
	<g>
		<rect id="p_136_" x="72.3" y="112.3" width="8" height="8"/>
	</g>
	<g>
		<rect id="p_137_" x="72.3" y="144.3" width="8" height="8"/>
	</g>
	<g>
		<rect id="p_138_" x="72.3" y="152.3" width="8" height="8"/>
	</g>
	<g>
		<rect id="p_139_" x="72.3" y="184.3" width="8" height="8"/>
	</g>
	<g>
		<rect id="p_140_" x="72.3" y="192.3" width="8" height="8"/>
	</g>
	<g>
		<rect id="p_141_" x="80.3" y="32.3" width="8" height="8"/>
	</g>
	<g>
		<rect id="p_142_" x="80.3" y="48.3" width="8" height="8"/>
	</g>
	<g>
		<rect id="p_143_" x="80.3" y="104.3" width="8" height="8"/>
	</g>
	<g>
		<rect id="p_144_" x="80.3" y="120.3" width="8" height="8"/>
	</g>
	<g>
		<rect id="p_145_" x="80.3" y="152.3" width="8" height="8"/>
	</g>
	<g>
		<rect id="p_146_" x="80.3" y="176.3" width="8" height="8"/>
	</g>
	<g>
		<rect id="p_147_" x="88.3" y="16.3" width="8" height="8"/>
	</g>
	<g>
		<rect id="p_148_" x="88.3" y="24.3" width="8" height="8"/>
	</g>
	<g>
		<rect id="p_149_" x="88.3" y="32.3" width="8" height="8"/>
	</g>
	<g>
		<rect id="p_150_" x="88.3" y="56.3" width="8" height="8"/>
	</g>
	<g>
		<rect id="p_151_" x="88.3" y="88.3" width="8" height="8"/>
	</g>
	<g>
		<rect id="p_152_" x="88.3" y="96.3" width="8" height="8"/>
	</g>
	<g>
		<rect id="p_153_" x="88.3" y="104.3" width="8" height="8"/>
	</g>
	<g>
		<rect id="p_154_" x="88.3" y="128.3" width="8" height="8"/>
	</g>
	<g>
		<rect id="p_155_" x="88.3" y="144.3" width="8" height="8"/>
	</g>
	<g>
		<rect id="p_156_" x="88.3" y="160.3" width="8" height="8"/>
	</g>
	<g>
		<rect id="p_157_" x="88.3" y="176.3" width="8" height="8"/>
	</g>
	<g>
		<rect id="p_158_" x="96.3" y="16.3" width="8" height="8"/>
	</g>
	<g>
		<rect id="p_159_" x="96.3" y="40.3" width="8" height="8"/>
	</g>
	<g>
		<rect id="p_160_" x="96.3" y="48.3" width="8" height="8"/>
	</g>
	<g>
		<rect id="p_161_" x="96.3" y="88.3" width="8" height="8"/>
	</g>
	<g>
		<rect id="p_162_" x="96.3" y="112.3" width="8" height="8"/>
	</g>
	<g>
		<rect id="p_163_" x="96.3" y="120.3" width="8" height="8"/>
	</g>
	<g>
		<rect id="p_164_" x="96.3" y="136.3" width="8" height="8"/>
	</g>
	<g>
		<rect id="p_165_" x="96.3" y="144.3" width="8" height="8"/>
	</g>
	<g>
		<rect id="p_166_" x="96.3" y="152.3" width="8" height="8"/>
	</g>
	<g>
		<rect id="p_167_" x="96.3" y="160.3" width="8" height="8"/>
	</g>
	<g>
		<rect id="p_168_" x="96.3" y="168.3" width="8" height="8"/>
	</g>
	<g>
		<rect id="p_169_" x="96.3" y="176.3" width="8" height="8"/>
	</g>
	<g>
		<rect id="p_170_" x="96.3" y="192.3" width="8" height="8"/>
	</g>
	<g>
		<rect id="p_171_" x="104.3" y="0.3" width="8" height="8"/>
	</g>
	<g>
		<rect id="p_172_" x="104.3" y="8.3" width="8" height="8"/>
	</g>
	<g>
		<rect id="p_173_" x="104.3" y="16.3" width="8" height="8"/>
	</g>
	<g>
		<rect id="p_174_" x="104.3" y="32.3" width="8" height="8"/>
	</g>
	<g>
		<rect id="p_175_" x="104.3" y="56.3" width="8" height="8"/>
	</g>
	<g>
		<rect id="p_176_" x="104.3" y="64.3" width="8" height="8"/>
	</g>
	<g>
		<rect id="p_177_" x="104.3" y="88.3" width="8" height="8"/>
	</g>
	<g>
		<rect id="p_178_" x="104.3" y="104.3" width="8" height="8"/>
	</g>
	<g>
		<rect id="p_179_" x="104.3" y="120.3" width="8" height="8"/>
	</g>
	<g>
		<rect id="p_180_" x="104.3" y="136.3" width="8" height="8"/>
	</g>
	<g>
		<rect id="p_181_" x="104.3" y="160.3" width="8" height="8"/>
	</g>
	<g>
		<rect id="p_182_" x="104.3" y="168.3" width="8" height="8"/>
	</g>
	<g>
		<rect id="p_183_" x="104.3" y="176.3" width="8" height="8"/>
	</g>
	<g>
		<rect id="p_184_" x="112.3" y="16.3" width="8" height="8"/>
	</g>
	<g>
		<rect id="p_185_" x="112.3" y="32.3" width="8" height="8"/>
	</g>
	<g>
		<rect id="p_186_" x="112.3" y="40.3" width="8" height="8"/>
	</g>
	<g>
		<rect id="p_187_" x="112.3" y="48.3" width="8" height="8"/>
	</g>
	<g>
		<rect id="p_188_" x="112.3" y="56.3" width="8" height="8"/>
	</g>
	<g>
		<rect id="p_189_" x="112.3" y="64.3" width="8" height="8"/>
	</g>
	<g>
		<rect id="p_190_" x="112.3" y="80.3" width="8" height="8"/>
	</g>
	<g>
		<rect id="p_191_" x="112.3" y="88.3" width="8" height="8"/>
	</g>
	<g>
		<rect id="p_192_" x="112.3" y="112.3" width="8" height="8"/>
	</g>
	<g>
		<rect id="p_193_" x="112.3" y="168.3" width="8" height="8"/>
	</g>
	<g>
		<rect id="p_194_" x="112.3" y="192.3" width="8" height="8"/>
	</g>
	<g>
		<rect id="p_195_" x="120.3" y="24.3" width="8" height="8"/>
	</g>
	<g>
		<rect id="p_196_" x="120.3" y="32.3" width="8" height="8"/>
	</g>
	<g>
		<rect id="p_197_" x="120.3" y="56.3" width="8" height="8"/>
	</g>
	<g>
		<rect id="p_198_" x="120.3" y="96.3" width="8" height="8"/>
	</g>
	<g>
		<rect id="p_199_" x="120.3" y="104.3" width="8" height="8"/>
	</g>
	<g>
		<rect id="p_200_" x="120.3" y="152.3" width="8" height="8"/>
	</g>
	<g>
		<rect id="p_201_" x="120.3" y="168.3" width="8" height="8"/>
	</g>
	<g>
		<rect id="p_202_" x="120.3" y="176.3" width="8" height="8"/>
	</g>
	<g>
		<rect id="p_203_" x="120.3" y="192.3" width="8" height="8"/>
	</g>
	<g>
		<rect id="p_204_" x="128.3" y="8.3" width="8" height="8"/>
	</g>
	<g>
		<rect id="p_205_" x="128.3" y="32.3" width="8" height="8"/>
	</g>
	<g>
		<rect id="p_206_" x="128.3" y="40.3" width="8" height="8"/>
	</g>
	<g>
		<rect id="p_207_" x="128.3" y="48.3" width="8" height="8"/>
	</g>
	<g>
		<rect id="p_208_" x="128.3" y="56.3" width="8" height="8"/>
	</g>
	<g>
		<rect id="p_209_" x="128.3" y="64.3" width="8" height="8"/>
	</g>
	<g>
		<rect id="p_210_" x="128.3" y="72.3" width="8" height="8"/>
	</g>
	<g>
		<rect id="p_211_" x="128.3" y="80.3" width="8" height="8"/>
	</g>
	<g>
		<rect id="p_212_" x="128.3" y="88.3" width="8" height="8"/>
	</g>
	<g>
		<rect id="p_213_" x="128.3" y="104.3" width="8" height="8"/>
	</g>
	<g>
		<rect id="p_214_" x="128.3" y="128.3" width="8" height="8"/>
	</g>
	<g>
		<rect id="p_215_" x="128.3" y="136.3" width="8" height="8"/>
	</g>
	<g>
		<rect id="p_216_" x="128.3" y="144.3" width="8" height="8"/>
	</g>
	<g>
		<rect id="p_217_" x="128.3" y="152.3" width="8" height="8"/>
	</g>
	<g>
		<rect id="p_218_" x="128.3" y="160.3" width="8" height="8"/>
	</g>
	<g>
		<rect id="p_219_" x="128.3" y="168.3" width="8" height="8"/>
	</g>
	<g>
		<rect id="p_220_" x="128.3" y="176.3" width="8" height="8"/>
	</g>
	<g>
		<rect id="p_221_" x="136.3" y="64.3" width="8" height="8"/>
	</g>
	<g>
		<rect id="p_222_" x="136.3" y="96.3" width="8" height="8"/>
	</g>
	<g>
		<rect id="p_223_" x="136.3" y="104.3" width="8" height="8"/>
	</g>
	<g>
		<rect id="p_224_" x="136.3" y="120.3" width="8" height="8"/>
	</g>
	<g>
		<rect id="p_225_" x="136.3" y="128.3" width="8" height="8"/>
	</g>
	<g>
		<rect id="p_226_" x="136.3" y="160.3" width="8" height="8"/>
	</g>
	<g>
		<rect id="p_227_" x="136.3" y="168.3" width="8" height="8"/>
	</g>
	<g>
		<rect id="p_228_" x="136.3" y="184.3" width="8" height="8"/>
	</g>
	<g>
		<rect id="p_229_" x="144.3" y="0.3" width="8" height="8"/>
	</g>
	<g>
		<rect id="p_230_" x="144.3" y="8.3" width="8" height="8"/>
	</g>
	<g>
		<rect id="p_231_" x="144.3" y="16.3" width="8" height="8"/>
	</g>
	<g>
		<rect id="p_232_" x="144.3" y="24.3" width="8" height="8"/>
	</g>
	<g>
		<rect id="p_233_" x="144.3" y="32.3" width="8" height="8"/>
	</g>
	<g>
		<rect id="p_234_" x="144.3" y="40.3" width="8" height="8"/>
	</g>
	<g>
		<rect id="p_235_" x="144.3" y="48.3" width="8" height="8"/>
	</g>
	<g>
		<rect id="p_236_" x="144.3" y="80.3" width="8" height="8"/>
	</g>
	<g>
		<rect id="p_237_" x="144.3" y="88.3" width="8" height="8"/>
	</g>
	<g>
		<rect id="p_238_" x="144.3" y="96.3" width="8" height="8"/>
	</g>
	<g>
		<rect id="p_239_" x="144.3" y="104.3" width="8" height="8"/>
	</g>
	<g>
		<rect id="p_240_" x="144.3" y="112.3" width="8" height="8"/>
	</g>
	<g>
		<rect id="p_241_" x="144.3" y="120.3" width="8" height="8"/>
	</g>
	<g>
		<rect id="p_242_" x="144.3" y="128.3" width="8" height="8"/>
	</g>
	<g>
		<rect id="p_243_" x="144.3" y="144.3" width="8" height="8"/>
	</g>
	<g>
		<rect id="p_244_" x="144.3" y="160.3" width="8" height="8"/>
	</g>
	<g>
		<rect id="p_245_" x="144.3" y="168.3" width="8" height="8"/>
	</g>
	<g>
		<rect id="p_246_" x="144.3" y="176.3" width="8" height="8"/>
	</g>
	<g>
		<rect id="p_247_" x="144.3" y="192.3" width="8" height="8"/>
	</g>
	<g>
		<rect id="p_248_" x="152.3" y="0.3" width="8" height="8"/>
	</g>
	<g>
		<rect id="p_249_" x="152.3" y="48.3" width="8" height="8"/>
	</g>
	<g>
		<rect id="p_250_" x="152.3" y="72.3" width="8" height="8"/>
	</g>
	<g>
		<rect id="p_251_" x="152.3" y="80.3" width="8" height="8"/>
	</g>
	<g>
		<rect id="p_252_" x="152.3" y="96.3" width="8" height="8"/>
	</g>
	<g>
		<rect id="p_253_" x="152.3" y="104.3" width="8" height="8"/>
	</g>
	<g>
		<rect id="p_254_" x="152.3" y="120.3" width="8" height="8"/>
	</g>
	<g>
		<rect id="p_255_" x="152.3" y="128.3" width="8" height="8"/>
	</g>
	<g>
		<rect id="p_256_" x="152.3" y="160.3" width="8" height="8"/>
	</g>
	<g>
		<rect id="p_257_" x="152.3" y="192.3" width="8" height="8"/>
	</g>
	<g>
		<rect id="p_258_" x="160.3" y="0.3" width="8" height="8"/>
	</g>
	<g>
		<rect id="p_259_" x="160.3" y="16.3" width="8" height="8"/>
	</g>
	<g>
		<rect id="p_260_" x="160.3" y="24.3" width="8" height="8"/>
	</g>
	<g>
		<rect id="p_261_" x="160.3" y="32.3" width="8" height="8"/>
	</g>
	<g>
		<rect id="p_262_" x="160.3" y="48.3" width="8" height="8"/>
	</g>
	<g>
		<rect id="p_263_" x="160.3" y="64.3" width="8" height="8"/>
	</g>
	<g>
		<rect id="p_264_" x="160.3" y="80.3" width="8" height="8"/>
	</g>
	<g>
		<rect id="p_265_" x="160.3" y="96.3" width="8" height="8"/>
	</g>
	<g>
		<rect id="p_266_" x="160.3" y="104.3" width="8" height="8"/>
	</g>
	<g>
		<rect id="p_267_" x="160.3" y="112.3" width="8" height="8"/>
	</g>
	<g>
		<rect id="p_268_" x="160.3" y="120.3" width="8" height="8"/>
	</g>
	<g>
		<rect id="p_269_" x="160.3" y="128.3" width="8" height="8"/>
	</g>
	<g>
		<rect id="p_270_" x="160.3" y="136.3" width="8" height="8"/>
	</g>
	<g>
		<rect id="p_271_" x="160.3" y="144.3" width="8" height="8"/>
	</g>
	<g>
		<rect id="p_272_" x="160.3" y="152.3" width="8" height="8"/>
	</g>
	<g>
		<rect id="p_273_" x="160.3" y="160.3" width="8" height="8"/>
	</g>
	<g>
		<rect id="p_274_" x="160.3" y="168.3" width="8" height="8"/>
	</g>
	<g>
		<rect id="p_275_" x="160.3" y="176.3" width="8" height="8"/>
	</g>
	<g>
		<rect id="p_276_" x="160.3" y="184.3" width="8" height="8"/>
	</g>
	<g>
		<rect id="p_277_" x="160.3" y="192.3" width="8" height="8"/>
	</g>
	<g>
		<rect id="p_278_" x="168.3" y="0.3" width="8" height="8"/>
	</g>
	<g>
		<rect id="p_279_" x="168.3" y="16.3" width="8" height="8"/>
	</g>
	<g>
		<rect id="p_280_" x="168.3" y="24.3" width="8" height="8"/>
	</g>
	<g>
		<rect id="p_281_" x="168.3" y="32.3" width="8" height="8"/>
	</g>
	<g>
		<rect id="p_282_" x="168.3" y="48.3" width="8" height="8"/>
	</g>
	<g>
		<rect id="p_283_" x="168.3" y="64.3" width="8" height="8"/>
	</g>
	<g>
		<rect id="p_284_" x="168.3" y="88.3" width="8" height="8"/>
	</g>
	<g>
		<rect id="p_285_" x="168.3" y="128.3" width="8" height="8"/>
	</g>
	<g>
		<rect id="p_286_" x="168.3" y="160.3" width="8" height="8"/>
	</g>
	<g>
		<rect id="p_287_" x="168.3" y="168.3" width="8" height="8"/>
	</g>
	<g>
		<rect id="p_288_" x="168.3" y="192.3" width="8" height="8"/>
	</g>
	<g>
		<rect id="p_289_" x="176.3" y="0.3" width="8" height="8"/>
	</g>
	<g>
		<rect id="p_290_" x="176.3" y="16.3" width="8" height="8"/>
	</g>
	<g>
		<rect id="p_291_" x="176.3" y="24.3" width="8" height="8"/>
	</g>
	<g>
		<rect id="p_292_" x="176.3" y="32.3" width="8" height="8"/>
	</g>
	<g>
		<rect id="p_293_" x="176.3" y="48.3" width="8" height="8"/>
	</g>
	<g>
		<rect id="p_294_" x="176.3" y="64.3" width="8" height="8"/>
	</g>
	<g>
		<rect id="p_295_" x="176.3" y="88.3" width="8" height="8"/>
	</g>
	<g>
		<rect id="p_296_" x="176.3" y="96.3" width="8" height="8"/>
	</g>
	<g>
		<rect id="p_297_" x="176.3" y="112.3" width="8" height="8"/>
	</g>
	<g>
		<rect id="p_298_" x="176.3" y="128.3" width="8" height="8"/>
	</g>
	<g>
		<rect id="p_299_" x="176.3" y="136.3" width="8" height="8"/>
	</g>
	<g>
		<rect id="p_300_" x="176.3" y="144.3" width="8" height="8"/>
	</g>
	<g>
		<rect id="p_301_" x="176.3" y="168.3" width="8" height="8"/>
	</g>
	<g>
		<rect id="p_302_" x="176.3" y="176.3" width="8" height="8"/>
	</g>
	<g>
		<rect id="p_303_" x="176.3" y="184.3" width="8" height="8"/>
	</g>
	<g>
		<rect id="p_304_" x="176.3" y="192.3" width="8" height="8"/>
	</g>
	<g>
		<rect id="p_305_" x="184.3" y="0.3" width="8" height="8"/>
	</g>
	<g>
		<rect id="p_306_" x="184.3" y="48.3" width="8" height="8"/>
	</g>
	<g>
		<rect id="p_307_" x="184.3" y="72.3" width="8" height="8"/>
	</g>
	<g>
		<rect id="p_308_" x="184.3" y="96.3" width="8" height="8"/>
	</g>
	<g>
		<rect id="p_309_" x="184.3" y="112.3" width="8" height="8"/>
	</g>
	<g>
		<rect id="p_310_" x="184.3" y="128.3" width="8" height="8"/>
	</g>
	<g>
		<rect id="p_311_" x="184.3" y="144.3" width="8" height="8"/>
	</g>
	<g>
		<rect id="p_312_" x="184.3" y="152.3" width="8" height="8"/>
	</g>
	<g>
		<rect id="p_313_" x="184.3" y="168.3" width="8" height="8"/>
	</g>
	<g>
		<rect id="p_314_" x="184.3" y="176.3" width="8" height="8"/>
	</g>
	<g>
		<rect id="p_315_" x="184.3" y="192.3" width="8" height="8"/>
	</g>
	<g>
		<rect id="p_316_" x="192.3" y="0.3" width="8" height="8"/>
	</g>
	<g>
		<rect id="p_317_" x="192.3" y="8.3" width="8" height="8"/>
	</g>
	<g>
		<rect id="p_318_" x="192.3" y="16.3" width="8" height="8"/>
	</g>
	<g>
		<rect id="p_319_" x="192.3" y="24.3" width="8" height="8"/>
	</g>
	<g>
		<rect id="p_320_" x="192.3" y="32.3" width="8" height="8"/>
	</g>
	<g>
		<rect id="p_321_" x="192.3" y="40.3" width="8" height="8"/>
	</g>
	<g>
		<rect id="p_322_" x="192.3" y="48.3" width="8" height="8"/>
	</g>
	<g>
		<rect id="p_323_" x="192.3" y="64.3" width="8" height="8"/>
	</g>
	<g>
		<rect id="p_324_" x="192.3" y="96.3" width="8" height="8"/>
	</g>
	<g>
		<rect id="p_325_" x="192.3" y="104.3" width="8" height="8"/>
	</g>
	<g>
		<rect id="p_326_" x="192.3" y="120.3" width="8" height="8"/>
	</g>
	<g>
		<rect id="p_327_" x="192.3" y="128.3" width="8" height="8"/>
	</g>
	<g>
		<rect id="p_328_" x="192.3" y="136.3" width="8" height="8"/>
	</g>
	<g>
		<rect id="p_329_" x="192.3" y="144.3" width="8" height="8"/>
	</g>
	<g>
		<rect id="p_330_" x="192.3" y="152.3" width="8" height="8"/>
	</g>
	<g>
		<rect id="p_331_" x="192.3" y="168.3" width="8" height="8"/>
	</g>
	<g>
		<rect id="p_332_" x="192.3" y="192.3" width="8" height="8"/>
	</g>
</g>
</svg>
