<svg xmlns="http://www.w3.org/2000/svg" width="107.5px" height="46px" viewBox="0 0 107.5 46">
<style type="text/css">
	.st0{fill:#231F20;}
</style>
<g>
	<path d="M105.8,19L87.6,1.5c-1-1-2.4-1.5-3.8-1.5H5.5C2.5,0,0,2.5,0,5.5v34.9C0,43.5,2.5,46,5.5,46h78.2
		c1.4,0,2.8-0.6,3.8-1.5L105.8,27C108.1,24.8,108.1,21.2,105.8,19z M103.2,26.5L85.9,42.2c-1,0.9-2.3,1.4-3.6,1.4H8
		c-2.9,0-5.3-2.2-5.3-5V7.3c0-2.7,2.4-5,5.3-5h74.3c1.4,0,2.7,0.5,3.6,1.4l17.3,15.6C105.3,21.3,105.3,24.6,103.2,26.5z"/>
	<circle cx="84.7" cy="23" r="4.8"/>
</g>
</svg>
