<svg xmlns="http://www.w3.org/2000/svg" viewBox="0 0 612 612">
	<path d="M608,246.9l-29.4-42c-0.2,0.1-0.4,0.3-0.5,0.4c-33.3,23.3-79.2,15.2-102.5-18.1c-23.3-33.3-15.2-79.2,18.1-102.5
			c0.2-0.1,0.4-0.2,0.5-0.4l-29.4-42c-7.1-10.1-21-12.6-31.1-5.5l-116.3,81.4l25.4,36.3L315.2,174l-25.4-36.3L9.5,334
			c-10.1,7.1-12.6,21-5.5,31.1l143.2,204.4c7.1,10.1,21,12.6,31.1,5.5l280.2-196.3l-25.1-35.9l27.6-19.3l25.1,35.9L602.5,278
			C612.6,270.9,615,257,608,246.9z M334.8,200.7l27.6-19.3l33,47.1l-27.6,19.3L334.8,200.7z M415.7,317.5L385.2,274l27.6-19.3
			l30.5,43.5L415.7,317.5z"/>
</svg>
